<svg version="1.1"
	 id="Layer_1" xmlns:v="http://schemas.microsoft.com/visio/2003/SVGExtensions/" xmlns:ev="http://www.w3.org/2001/xml-events"
	 xmlns="http://www.w3.org/2000/svg" xmlns:xlink="http://www.w3.org/1999/xlink" x="0px" y="0px" width="128.98px"
	 height="49.72px" viewBox="18.238 18.244 128.98 49.72" enable-background="new 18.238 18.244 128.98 49.72" xml:space="preserve">
		
		<linearGradient id="anim"  x1="0%" y1="100%">
      <stop offset="0%" stop-color="#C7C402" stop-opacity="1">
		<animate attributeName="stop-color" 
		values="#C7C402;#FEFE82;#C7C402" dur="500ms" repeatCount="indefinite"/>
		</stop>
    </linearGradient>
        
        <g transform="translate(18.24,-38.0825)">
			<g>
				<path fill="url(#anim)"  d="M127.979,56.327c0.55,0,1,0.45,1,1v32.129c0,0.55-0.45,1-1,1h-57.53c-0.55,0-1,0.45-1,1v13.591
					c0,0.55-0.45,1-1,1h-32.01c-0.55,0-1-0.45-1-1v-6.5c0-0.55-0.45-1-1-1h-9.34c-0.55,0-1-0.45-1-1v-9.341c0-0.55-0.45-1-1-1h-22.1
					c-0.55,0-1-0.45-1-1V63.117c0-0.55,0.45-1,1-1h34.85c0.55,0,1-0.45,1-1v-3.79c0-0.55,0.45-1,1-1H127.979z" >
        </path>
			</g>
		</g>
</svg>
