<svg version="1.1"
	 id="Layer_1" xmlns:v="http://schemas.microsoft.com/visio/2003/SVGExtensions/" xmlns:ev="http://www.w3.org/2001/xml-events"
	 xmlns="http://www.w3.org/2000/svg" xmlns:xlink="http://www.w3.org/1999/xlink" x="0px" y="0px" width="25.512px"
	 height="31.18px" viewBox="18.24 18.24 25.512 31.18" enable-background="new 18.24 18.24 25.512 31.18" xml:space="preserve">
		
				<linearGradient id="anim"  fy="0">
      <stop offset="0" stop-color="#148F01">
		</stop>
		<stop offset=".7" stop-color="#46DF04">
		</stop>
    </linearGradient>
        
        <g transform="translate(18.24,-18.24)">
			<g>
				<path fill="url(#anim)"  stroke='rgba(49,163,0,0.7)' d="M0,37.48c0-0.551,0.449-1,1-1h23.512c0.55,0,1,0.449,1,1v29.18c0,0.55-0.45,1-1,1H1c-0.551,0-1-0.45-1-1
					V37.48z" >
					
        </path>
			</g>
		</g>
</svg>
