<svg xmlns="http://www.w3.org/2000/svg" xmlns:xlink="http://www.w3.org/1999/xlink" xmlns:ev="http://www.w3.org/2001/xml-events"
		xmlns:v="http://schemas.microsoft.com/visio/2003/SVGExtensions/" width="1.31774in" height="2.62621in"
		viewBox="0 0 94.8771 189.087" xml:space="preserve" color-interpolation-filters="sRGB" class="st2">



		<g id="shape1-1" v:mID="1" v:groupContext="shape" transform="translate(0.125,-0.125)">
			<title>Sheet.1</title>
			<path fill="#D7D7D7"   d="M0 0.25 L63.78 0.25 L63.78 11.51 L94.63 11.51 L94.63 189.09 L0 189.09 L0 0.25 Z" class="st1"/>
		</g>
</svg>
