<svg xmlns="http://www.w3.org/2000/svg" xmlns:xlink="http://www.w3.org/1999/xlink" xmlns:ev="http://www.w3.org/2001/xml-events"
		xmlns:v="http://schemas.microsoft.com/visio/2003/SVGExtensions/" width="4.45509in" height="7.09703in"
		viewBox="0 0 320.767 510.986" xml:space="preserve" color-interpolation-filters="sRGB" class="st4">
		
				<linearGradient id="anim"  x1="0%" y1="100%">
      <stop offset="0%" stop-color="#C7C402" stop-opacity="1">
		<animate attributeName="stop-color" 
		values="#C7C402;#FEFE82;#C7C402" dur="500ms" repeatCount="indefinite"/>
		</stop>
    </linearGradient>
    
		<g id="shape1-1" v:mID="1" v:groupContext="shape" transform="translate(0.375,-0.375)">
			<path fill="url(#anim)" d="M161.57 0.75 L245.42 0.75 L245.42 49.98 L320.02 49.98 L320.02 205.14 L283.46 205.14 L283.46 298.39 L317.78 298.39
						 L317.78 397.6 L298.38 397.6 L298.38 510.99 L85.04 510.99 L85.04 430.42 L50.73 430.42 L0 369.25 L0 227.52
						 L70.87 227.52 L70.87 170.83 L51.47 170.83 L51.47 134.28 L67.88 134.28 L67.88 123.83 L55.2 123.83 L55.2 62.66
						 L121.59 62.66 L121.59 48.49 L161.13 48.49 L161.57 0.75 Z" class="st1"/>

	</g>
</svg>
