<?xml version="1.0" encoding="UTF-8"?>
<svg width="1188px" height="144px" viewBox="0 0 1188 144" version="1.1" xmlns="http://www.w3.org/2000/svg" xmlns:xlink="http://www.w3.org/1999/xlink">
    <!-- Generator: Sketch 53.2 (72643) - https://sketchapp.com -->
    <title>bg_monitoring_1</title>
    <desc>Created with Sketch.</desc>
    <g id="spec" stroke="none" stroke-width="1" fill="none" fill-rule="evenodd">
        <g id="Artboard" transform="translate(-899.000000, -581.000000)" fill="#000000" fill-rule="nonzero">
            <rect id="bg_monitoring_1" x="899" y="581" width="1188" height="144" rx="4"></rect>
        </g>
    </g>
</svg>