<?xml version="1.0" encoding="UTF-8"?>
<svg width="320px" height="48px" viewBox="0 0 320 48" version="1.1" xmlns="http://www.w3.org/2000/svg" xmlns:xlink="http://www.w3.org/1999/xlink">
    <!-- Generator: Sketch 53.2 (72643) - https://sketchapp.com -->
    <title>text_input_selected</title>
    <desc>Created with Sketch.</desc>
    <g id="spec" stroke="none" stroke-width="1" fill="none" fill-rule="evenodd">
        <g id="Artboard" transform="translate(-109.000000, -347.000000)" fill="#1E1E23" fill-rule="nonzero" stroke="#6699F0" stroke-width="3">
            <rect id="text_input_selected" x="110.5" y="348.5" width="317" height="45" rx="2"></rect>
        </g>
    </g>
</svg>