<?xml version="1.0" encoding="UTF-8"?>
<svg width="120px" height="120px" viewBox="0 0 120 120" version="1.1" xmlns="http://www.w3.org/2000/svg" xmlns:xlink="http://www.w3.org/1999/xlink">
    <!-- Generator: Sketch 53.2 (72643) - https://sketchapp.com -->
    <title>btn_app_analysis_pushed</title>
    <desc>Created with Sketch.</desc>
    <g id="spec" stroke="none" stroke-width="1" fill="none" fill-rule="evenodd">
        <g id="Artboard" transform="translate(-191.000000, -1216.000000)">
            <g id="btn_app_analysis_pushed" transform="translate(191.000000, 1216.000000)">
                <rect id="Rectangle-Copy-89" fill="#000000" x="0" y="0" width="120" height="120" rx="6"></rect>
                <rect id="Rectangle-Copy-89" fill="#000000" x="0" y="0" width="120" height="120" rx="6"></rect>
                <g id="Group-60" transform="translate(17.000000, 15.000000)" fill-rule="nonzero" stroke-width="2">
                    <g id="Group-9-Copy-2" transform="translate(0.000000, 0.000000)">
                        <path d="M85.3333333,85.3333333 L8,85.3333333 C3.581722,85.3333333 5.41083001e-16,81.7516113 0,77.3333333 L0,0" id="Rectangle-Copy-16" stroke="#81848B"></path>
                        <polyline id="Path-4" stroke="#6699F0" points="7.46666667 54.4 26.2631619 35.6035048 45.0596571 54.4 80.2596571 19.2"></polyline>
                        <polyline id="Rectangle" stroke="#6699F0" points="66.1333333 18.1333333 80 18.1333333 80 32"></polyline>
                    </g>
                    <path d="M85.3333333,85.3333333 L8,85.3333333 C3.581722,85.3333333 2.98969032e-13,81.7516113 2.98427949e-13,77.3333333 L2.98427949e-13,2.98427949e-13" id="Rectangle-Copy-16" stroke="#FFFFFF"></path>
                    <polyline id="Path-4" stroke="#FFFFFF" points="7.46666667 54.4 26.2631619 35.6035048 45.0596571 54.4 80.2596571 19.2"></polyline>
                    <polyline id="Rectangle" stroke="#FFFFFF" points="66.1333333 18.1333333 80 18.1333333 80 32"></polyline>
                </g>
            </g>
        </g>
    </g>
</svg>